%YAML 1.1
%TAG !u! tag:unity3d.com,2011:
--- !u!114 &11400000
MonoBehaviour:
  m_ObjectHideFlags: 0
  m_CorrespondingSourceObject: {fileID: 0}
  m_PrefabInstance: {fileID: 0}
  m_PrefabAsset: {fileID: 0}
  m_GameObject: {fileID: 0}
  m_Enabled: 1
  m_EditorHideFlags: 0
  m_Script: {fileID: 11500000, guid: e6f83a2b77d3ab6489a444da380ca496, type: 3}
  m_Name: Arma
  m_EditorClassIdentifier: 
  itemName: Espada
  itemIcon: {fileID: 21300102, guid: 2844cc68b2e52ed44a273ac7ee3a215a, type: 3}
  itemQuantity: 1
  itemDescription: "Arma simple. +5 da\xF1o"
  equipado: 1
  armor: 0
  damage: 5
