%YAML 1.1
%TAG !u! tag:unity3d.com,2011:
--- !u!1001 &3848561199396398762
PrefabInstance:
  m_ObjectHideFlags: 0
  serializedVersion: 2
  m_Modification:
    m_TransformParent: {fileID: 0}
    m_Modifications:
    - target: {fileID: 8429914409532778361, guid: 3cd3c076cfbf5894093ff7be27ad6448,
        type: 3}
      propertyPath: m_Name
      value: PrefabBalistaT1
      objectReference: {fileID: 0}
    - target: {fileID: 3737815148241162699, guid: 3cd3c076cfbf5894093ff7be27ad6448,
        type: 3}
      propertyPath: m_LocalPosition.x
      value: 0
      objectReference: {fileID: 0}
    - target: {fileID: 3737815148241162699, guid: 3cd3c076cfbf5894093ff7be27ad6448,
        type: 3}
      propertyPath: m_LocalPosition.y
      value: 0
      objectReference: {fileID: 0}
    - target: {fileID: 3737815148241162699, guid: 3cd3c076cfbf5894093ff7be27ad6448,
        type: 3}
      propertyPath: m_LocalPosition.z
      value: 0
      objectReference: {fileID: 0}
    - target: {fileID: 3737815148241162699, guid: 3cd3c076cfbf5894093ff7be27ad6448,
        type: 3}
      propertyPath: m_LocalRotation.x
      value: 0
      objectReference: {fileID: 0}
    - target: {fileID: 3737815148241162699, guid: 3cd3c076cfbf5894093ff7be27ad6448,
        type: 3}
      propertyPath: m_LocalRotation.y
      value: 0
      objectReference: {fileID: 0}
    - target: {fileID: 3737815148241162699, guid: 3cd3c076cfbf5894093ff7be27ad6448,
        type: 3}
      propertyPath: m_LocalRotation.z
      value: 0
      objectReference: {fileID: 0}
    - target: {fileID: 3737815148241162699, guid: 3cd3c076cfbf5894093ff7be27ad6448,
        type: 3}
      propertyPath: m_LocalRotation.w
      value: 1
      objectReference: {fileID: 0}
    - target: {fileID: 3737815148241162699, guid: 3cd3c076cfbf5894093ff7be27ad6448,
        type: 3}
      propertyPath: m_RootOrder
      value: 0
      objectReference: {fileID: 0}
    - target: {fileID: 3737815148241162699, guid: 3cd3c076cfbf5894093ff7be27ad6448,
        type: 3}
      propertyPath: m_LocalEulerAnglesHint.x
      value: 0
      objectReference: {fileID: 0}
    - target: {fileID: 3737815148241162699, guid: 3cd3c076cfbf5894093ff7be27ad6448,
        type: 3}
      propertyPath: m_LocalEulerAnglesHint.y
      value: 0
      objectReference: {fileID: 0}
    - target: {fileID: 3737815148241162699, guid: 3cd3c076cfbf5894093ff7be27ad6448,
        type: 3}
      propertyPath: m_LocalEulerAnglesHint.z
      value: 0
      objectReference: {fileID: 0}
    - target: {fileID: 3737815148241162699, guid: 3cd3c076cfbf5894093ff7be27ad6448,
        type: 3}
      propertyPath: m_LocalScale.x
      value: 1
      objectReference: {fileID: 0}
    - target: {fileID: 3737815148241162699, guid: 3cd3c076cfbf5894093ff7be27ad6448,
        type: 3}
      propertyPath: m_LocalScale.y
      value: 1
      objectReference: {fileID: 0}
    - target: {fileID: 5660918160754587540, guid: 3cd3c076cfbf5894093ff7be27ad6448,
        type: 3}
      propertyPath: m_Sprite
      value: 
      objectReference: {fileID: 21300000, guid: 543937de74b5c7d4e9fa444ba7732c45,
        type: 3}
    - target: {fileID: 1525200360490472275, guid: 3cd3c076cfbf5894093ff7be27ad6448,
        type: 3}
      propertyPath: m_Radius
      value: 2
      objectReference: {fileID: 0}
    - target: {fileID: 8255288249243756899, guid: 3cd3c076cfbf5894093ff7be27ad6448,
        type: 3}
      propertyPath: FireRate
      value: 1.5
      objectReference: {fileID: 0}
    - target: {fileID: 8255288249243756899, guid: 3cd3c076cfbf5894093ff7be27ad6448,
        type: 3}
      propertyPath: Damage
      value: 200
      objectReference: {fileID: 0}
    - target: {fileID: 8255288249243756899, guid: 3cd3c076cfbf5894093ff7be27ad6448,
        type: 3}
      propertyPath: VelProyectil
      value: 8
      objectReference: {fileID: 0}
    - target: {fileID: 8255288249243756899, guid: 3cd3c076cfbf5894093ff7be27ad6448,
        type: 3}
      propertyPath: misile
      value: 
      objectReference: {fileID: 2529564091240409892, guid: 9fba84501113eea4a9623f2dd45ae6cb,
        type: 3}
    - target: {fileID: 8255288249243756899, guid: 3cd3c076cfbf5894093ff7be27ad6448,
        type: 3}
      propertyPath: tipo
      value: Balista
      objectReference: {fileID: 0}
    m_RemovedComponents:
    - {fileID: 5814321063764544890, guid: 3cd3c076cfbf5894093ff7be27ad6448, type: 3}
  m_SourcePrefab: {fileID: 100100000, guid: 3cd3c076cfbf5894093ff7be27ad6448, type: 3}
