%YAML 1.1
%TAG !u! tag:unity3d.com,2011:
--- !u!114 &11400000
MonoBehaviour:
  m_ObjectHideFlags: 0
  m_CorrespondingSourceObject: {fileID: 0}
  m_PrefabInstance: {fileID: 0}
  m_PrefabAsset: {fileID: 0}
  m_GameObject: {fileID: 0}
  m_Enabled: 1
  m_EditorHideFlags: 0
  m_Script: {fileID: 11500000, guid: c47bf6c2235f95a44b0f8187f609957e, type: 3}
  m_Name: ManaPotion
  m_EditorClassIdentifier: 
  itemName: Pocion de mana
  itemIcon: {fileID: 21300008, guid: 2844cc68b2e52ed44a273ac7ee3a215a, type: 3}
  itemQuantity: 1
  itemDescription: cura 5 puntos de mana.
  heal: 0
  manaheal: 5
